[gd_resource type="ShaderMaterial" load_steps=5 format=3 uid="uid://t1uilhonndwf"]

[ext_resource type="Shader" path="res://Tsuneda/cenas/Sky_Planetas.gdshader" id="1_q3ui7"]
[ext_resource type="Texture2D" uid="uid://drbkutqe0t757" path="res://Tsuneda/Céu_Texturas/shader_noise.png" id="2_ji5xv"]
[ext_resource type="Texture2D" uid="uid://dv4ycvy2yfor" path="res://Tsuneda/Céu_Texturas/space_back2-1.jpg" id="3_j034d"]
[ext_resource type="Texture2D" uid="uid://c2eg6sjspw6hq" path="res://Tsuneda/Céu_Texturas/test.fw_.png" id="4_n8hf1"]

[resource]
shader = ExtResource("1_q3ui7")
shader_parameter/time = 1.0
shader_parameter/SPEED = 10.0
shader_parameter/sunColor = Vector3(3, 2, 1)
shader_parameter/sunDir = Vector3(-0.363696, 0.581914, 0.727393)
shader_parameter/iChannel0 = ExtResource("2_ji5xv")
shader_parameter/iChannel1 = ExtResource("3_j034d")
shader_parameter/iChannel2 = ExtResource("4_n8hf1")
