[gd_scene load_steps=7 format=3 uid="uid://come6uomjwubn"]

[ext_resource type="Material" uid="uid://brjrifrofc34" path="res://Tsuneda/world_environment_levels/fase_dificil/material_chao_dificil.tres" id="1_4fdro"]
[ext_resource type="Script" path="res://entities/push_hazard/push_hazard.gd" id="1_ky3i0"]

[sub_resource type="BoxShape3D" id="BoxShape3D_ye62t"]
size = Vector3(5, 5, 5)

[sub_resource type="BoxMesh" id="BoxMesh_qjbjx"]
size = Vector3(5, 5, 5)

[sub_resource type="Animation" id="Animation_hjgh2"]
resource_name = "push"
length = 3.0
loop_mode = 1
tracks/0/type = "position_3d"
tracks/0/imported = false
tracks/0/enabled = true
tracks/0/path = NodePath("HazardBody")
tracks/0/interp = 1
tracks/0/loop_wrap = true
tracks/0/keys = PackedFloat32Array(0, 1, 0, 0, 0, 0.5, 1, 10, 0, 0, 1, 1, 0, 0, 0)

[sub_resource type="AnimationLibrary" id="AnimationLibrary_fn7pj"]
_data = {
"push": SubResource("Animation_hjgh2")
}

[node name="PushHazard" type="Node3D"]
script = ExtResource("1_ky3i0")

[node name="HazardBody" type="RigidBody3D" parent="."]
mass = 1000.0
gravity_scale = 0.0
lock_rotation = true

[node name="CollisionShape3D" type="CollisionShape3D" parent="HazardBody"]
shape = SubResource("BoxShape3D_ye62t")

[node name="MeshInstance3D" type="MeshInstance3D" parent="HazardBody"]
mesh = SubResource("BoxMesh_qjbjx")
surface_material_override/0 = ExtResource("1_4fdro")

[node name="AnimationPlayer" type="AnimationPlayer" parent="."]
libraries = {
"": SubResource("AnimationLibrary_fn7pj")
}

[node name="SidePushDirectionMarker" type="Marker3D" parent="."]
transform = Transform3D(1, 0, 0, 0, 1, 0, 0, 0, 1, 10.5, 0, 0)
gizmo_extents = 5.0
