[gd_resource type="ShaderMaterial" load_steps=4 format=3 uid="uid://bbebumxia7hyo"]

[ext_resource type="Shader" path="res://Tsuneda/wormhole/materials/wormhole_mat.gdshader" id="1_ojlac"]

[sub_resource type="FastNoiseLite" id="FastNoiseLite_7nlax"]

[sub_resource type="NoiseTexture2D" id="NoiseTexture2D_vk8ge"]
noise = SubResource("FastNoiseLite_7nlax")

[resource]
resource_local_to_scene = true
render_priority = 0
shader = ExtResource("1_ojlac")
shader_parameter/MainColor = Color(0.137255, 0.462745, 0.878431, 1)
shader_parameter/BackColor1 = Color(0.313726, 0.858824, 0.141176, 1)
shader_parameter/BackColor2 = Color(1, 0.32549, 0.752941, 1)
shader_parameter/Brightness = 4.0
shader_parameter/alpha = 1.0
shader_parameter/tex_frg_32 = SubResource("NoiseTexture2D_vk8ge")
