[gd_scene load_steps=5 format=3 uid="uid://csyjdiunwaat6"]

[ext_resource type="Script" path="res://entities/final_location/final_location.gd" id="1_6f4bv"]
[ext_resource type="Material" uid="uid://dduu2v546iptn" path="res://Tsuneda/redFloor.tres" id="2_x8prt"]

[sub_resource type="SphereMesh" id="SphereMesh_4e7w7"]
material = ExtResource("2_x8prt")

[sub_resource type="BoxShape3D" id="BoxShape3D_x2lx4"]
size = Vector3(3, 3, 3)

[node name="FinalLocation" type="Area3D"]
collision_layer = 3
collision_mask = 3
script = ExtResource("1_6f4bv")

[node name="MeshInstance3D" type="MeshInstance3D" parent="."]
layers = 3
mesh = SubResource("SphereMesh_4e7w7")

[node name="CollisionShape3D" type="CollisionShape3D" parent="."]
shape = SubResource("BoxShape3D_x2lx4")

[connection signal="body_entered" from="." to="." method="_on_body_entered"]
