[gd_scene load_steps=3 format=3 uid="uid://b6ptkcvvgd5b6"]

[ext_resource type="Material" uid="uid://cbpahby4lum0s" path="res://entities/portal/raymarch_portal.tres" id="1_o2k3j"]

[sub_resource type="BoxMesh" id="BoxMesh_od4tu"]

[node name="decal4" type="MeshInstance3D"]
transform = Transform3D(1.73793, 0, 0, 0, 1.73794, 0, 0, 0, 1.73793, 1.41455, -2.38419e-07, -0.387116)
mesh = SubResource("BoxMesh_od4tu")
surface_material_override/0 = ExtResource("1_o2k3j")
