[gd_resource type="ShaderMaterial" load_steps=3 format=3 uid="uid://dduu2v546iptn"]

[ext_resource type="Shader" path="res://Tsuneda/cenas/Ice.gdshader" id="1_4ncjn"]
[ext_resource type="Texture2D" uid="uid://ccc7phgcsmhcs" path="res://Tsuneda/Céu_Texturas/Snow0192_6_seamless_S.jpg" id="2_6o725"]

[resource]
render_priority = 0
shader = ExtResource("1_4ncjn")
shader_parameter/FresnelPower = 2.5
shader_parameter/FresnelColor = Color(0.733333, 0.356863, 0.392157, 1)
shader_parameter/Color = Color(0.694118, 0.258824, 0.329412, 1)
shader_parameter/Tiling = Vector3(1, 1, 0)
shader_parameter/Offset = Vector3(0, 0, 0)
shader_parameter/RefractionAmount = 1.0
shader_parameter/Metallic = 0.134
shader_parameter/Smoothness = 0.627
shader_parameter/Normals = 0.77
shader_parameter/Ice_Texture = ExtResource("2_6o725")
